distros/V/Verilog-VCD-Writer/examples/serial_sample.csv.vcd
$date
2017-05-23T21:58:25
$end
$version
   Perl VCD Writer Version 
$end
$comment

$end
$timescale 1us $end
$scope module UART $end
$var  wire 1 ! TX  $end
$var  wire 1 " RX  $end
$upscope $end
$enddefinitions $end
$dumpvars

#0
0!
0"
#160
0!
0"
#319.999999999069
0!
0"
#479.999999999069
0!
0"
#640
0!
0"
#800
0!
0"
#960
0!
0"
#1119.99999999907
0!
0"
#1279.99999999907
0!
0"
#1439.99999999907
0!
0"
#1600
0!
0"
#1760
0!
0"
#1920
0!
0"
#2079.99999999907
0!
0"
#2239.99999999907
0!
0"
#2400
0!
0"
#2560
0!
0"
#2720
0!
0"
#2880
0!
0"
#3039.99999999907
0!
0"
#3199.99999999907
0!
0"
#3360
0!
0"
#3520
0!
0"
#3680
0!
0"
#3839.99999999907
0!
0"
#3999.99999999907
0!
0"
#4160
0!
0"
#4320
0!
0"
#4480
0!
0"
#4639.99999999907
0!
0"
#4799.99999999907
0!
0"
#4959.99999999907
0!
0"
#5120
0!
0"
#5280
0!
0"
#5440
0!
0"
#5600
0!
0"
#5759.99999999907
0!
0"
#5920
0!
0"
#6080
0!
0"
#6240
0!
0"
#6400
0!
0"
#6559.99999999907
0!
0"
#6719.99999999907
0!
0"
#6880
0!
0"
#7040
0!
0"
#7200
0!
0"
#7359.99999999907
0!
0"
#7519.99999999907
0!
0"
#7680
0!
0"
#7840
0!
0"
#8000
0!
0"
#8159.99999999907
0!
0"
#8319.99999999907
0!
0"
#8479.99999999907
0!
0"
#8640
0!
0"
#8800
0!
0"
#8960
0!
0"
#9120
0!
0"
#9279.99999999907
0!
0"
#9439.99999999907
0!
0"
#9600
0!
0"
#9760
0!
0"
#9920
0!
0"
#10079.9999999991
0!
0"
#10239.9999999991
0!
0"
#10400
0!
0"
#10560
0!
0"
#10720
0!
0"
#10879.9999999991
0!
0"
#11039.9999999991
0!
0"
#11199.9999999991
0!
0"
#11360
0!
0"
#11520
0!
0"
#11680
0!
0"
#11839.9999999991
0!
0"
#11999.9999999991
0!
0"
#12160
0!
0"
#12320
0!
0"
#12480
0!
0"
#12640
0!
0"
#12799.9999999991
0!
0"
#12959.9999999991
0!
0"
#13120
0!
0"
#13280
0!
0"
#13440
0!
0"
#13599.9999999991
0!
0"
#13759.9999999991
0!
0"
#13920
0!
0"
#14080
0!
0"
#14240
0!
0"
#14399.9999999991
0!
0"
#14559.9999999991
0!
0"
#14719.9999999991
0!
0"
#14880
0!
0"
#15040
0!
0"
#15200
0!
0"
#15360
0!
0"
#15519.9999999991
0!
0"
#15680
0!
0"
#15840
0!
0"
#16000
0!
0"
#16160
0!
0"
#16319.9999999991
0!
0"
#16479.9999999991
0!
0"
#16640
0!
0"
#16800
0!
0"
#16960
0!
0"
#17119.9999999991
0!
0"
#17279.9999999991
0!
0"
#17439.9999999991
0!
0"
#17600
0!
0"
#17760
0!
0"
#17920
0!
0"
#18079.9999999991
0!
0"
#18239.9999999991
0!
0"
#18400
0!
0"
#18560
0!
0"
#18720
0!
0"
#18880
0!
0"
#19039.9999999991
0!
0"
#19199.9999999991
0!
0"
#19360
0!
0"
#19520
0!
0"
#19680
0!
0"
#19839.9999999991
0!
0"
#19999.9999999991
0!
0"
#20160
0!
0"
#20320
0!
0"
#20480
0!
0"
#20639.9999999991
0!
0"
#20799.9999999991
0!
0"
#20959.9999999991
0!
0"
#21120
0!
0"
#21280
0!
0"
#21440
0!
0"
#21599.9999999991
0!
0"
#21759.9999999991
0!
0"
#21920
0!
0"
#22080
0!
0"
#22240
0!
0"
#22400
0!
0"
#22559.9999999991
0!
0"
#22719.9999999991
0!
0"
#22880
0!
0"
#23040
0!
0"
#23200
0!
0"
#23359.9999999991
0!
0"
#23519.9999999991
0!
0"
#23680
0!
0"
#23840
0!
0"
#24000
0!
0"
#24159.9999999991
0!
0"
#24319.9999999991
0!
0"
#24479.9999999991
0!
0"
#24640
0!
0"
#24800
0!
0"
#24960
0!
0"
#25120
0!
0"
#25279.9999999991
0!
0"
#25440
0!
0"
#25600
0!
0"
#25760
0!
0"
#25920
0!
0"
#26079.9999999991
0!
0"
#26239.9999999991
0!
0"
#26400
0!
0"
#26560
0!
0"
#26720
0!
0"
#26879.9999999991
0!
0"
#27039.9999999991
0!
0"
#27199.9999999991
0!
0"
#27360
0!
0"
#27520
0!
0"
#27680
0!
0"
#27839.9999999991
0!
0"
#27999.9999999991
0!
0"
#28160
0!
0"
#28320
0!
0"
#28480
0!
0"
#28640
0!
0"
#28799.9999999991
0!
0"
#28959.9999999991
0!
0"
#29120
0!
0"
#29280
0!
0"
#29440
0!
0"
#29599.9999999991
0!
0"
#29759.9999999991
0!
0"
#29920
0!
0"
#30080
0!
0"
#30240
0!
0"
#30399.9999999991
0!
0"
#30559.9999999991
0!
0"
#30719.9999999991
0!
0"
#30880
0!
0"
#31040
0!
0"
#31200
0!
0"
#31360
0!
0"
#31519.9999999991
0!
0"
#31680
0!
0"
#31840
0!
0"
#32000
0!
0"
#32160
0!
0"
#32319.9999999991
0!
0"
#32479.9999999991
0!
0"
#32640
0!
0"
#32800
0!
0"
#32960
0!
0"
#33119.9999999991
0!
0"
#33279.9999999991
0!
0"
#33440
0!
0"
#33600
0!
0"
#33760
0!
0"
#33919.9999999991
0!
0"
#34079.9999999991
0!
0"
#34239.9999999991
0!
0"
#34400
0!
0"
#34560
0!
0"
#34720
0!
0"
#34880
0!
0"
#35039.9999999991
0!
0"
#35199.9999999991
0!
0"
#35360
0!
0"
#35520
0!
0"
#35680
0!
0"
#35839.9999999991
0!
0"
#35999.9999999991
0!
0"
#36160
0!
0"
#36320
0!
0"
#36480
0!
0"
#36639.9999999991
0!
0"
#36799.9999999991
0!
0"
#36959.9999999991
0!
0"
#37120
0!
0"
#37280
0!
0"
#37440
0!
0"
#37599.9999999991
0!
0"
#37759.9999999991
0!
0"
#37920
0!
0"
#38080
0!
0"
#38240
0!
0"
#38400
0!
0"
#38559.9999999991
0!
0"
#38719.9999999991
0!
0"
#38880
0!
0"
#39040
0!
0"
#39200
0!
0"
#39359.9999999991
0!
0"
#39519.9999999991
0!
0"
#39680
0!
0"
#39840
0!
0"
#40000
0!
0"
#40159.9999999991
0!
0"
#40319.9999999991
0!
0"
#40479.9999999991
0!
0"
#40640
0!
0"
#40800
0!
0"
#40960
0!
0"
#41120
0!
0"
#41279.9999999991
0!
0"
#41440
0!
0"
#41600
0!
0"
#41760
0!
0"
#41920
0!
0"
#42079.9999999991
0!
0"
#42239.9999999991
0!
0"
#42400
0!
0"
#42560
0!
0"
#42720
0!
0"
#42879.9999999991
0!
0"
#43039.9999999991
0!
0"
#43199.9999999991
0!
0"
#43360
0!
0"
#43520
0!
0"
#43680
0!
0"
#43839.9999999991
0!
0"
#43999.9999999991
0!
0"
#44160
0!
0"
#44320
0!
0"
#44480
0!
0"
#44640
0!
0"
#44799.9999999991
0!
0"
#44959.9999999991
0!
0"
#45120
0!
0"
#45280
0!
0"
#45440
0!
0"
#45599.9999999991
0!
0"
#45759.9999999991
0!
0"
#45920
0!
0"
#46080
0!
0"
#46240
0!
0"
#46399.9999999991
0!
0"
#46559.9999999991
0!
0"
#46719.9999999991
0!
0"
#46880
0!
0"
#47040
0!
0"
#47200
0!
0"
#47359.9999999991
0!
0"
#47519.9999999991
0!
0"
#47680
0!
0"
#47840
0!
0"
#48000
0!
0"
#48160
0!
0"
#48319.9999999991
0!
0"
#48479.9999999991
0!
0"
#48640
0!
0"
#48800
0!
0"
#48960
0!
0"
#49119.9999999991
0!
0"
#49279.9999999991
0!
0"
#49440
0!
0"
#49600
0!
0"
#49760
0!
0"
#49919.9999999991
0!
0"
#50079.9999999991
0!
0"
#50239.9999999991
0!
0"
#50400
0!
0"
#50560
0!
0"
#50720
0!
0"
#50880
0!
0"
#51039.9999999991
0!
0"
#51200
0!
0"
#51360
0!
0"
#51520
0!
0"
#51680
0!
0"
#51839.9999999991
0!
0"
#51999.9999999991
0!
0"
#52160
0!
0"
#52320
0!
0"
#52480
0!
0"
#52639.9999999991
0!
0"
#52799.9999999991
0!
0"
#52959.9999999991
0!
0"
#53120
0!
0"
#53280
0!
0"
#53440
0!
0"
#53599.9999999991
0!
0"
#53759.9999999991
0!
0"
#53920
0!
0"
#54080
0!
0"
#54240
0!
0"
#54400
0!
0"
#54559.9999999991
0!
0"
#54719.9999999991
0!
0"
#54880
0!
0"
#55040
0!
0"
#55200
0!
0"
#55359.9999999991
0!
0"
#55519.9999999991
0!
0"
#55680
0!
0"
#55840
0!
0"
#56000
0!
0"
#56159.9999999991
0!
0"
#56319.9999999991
0!
0"
#56479.9999999991
0!
0"
#56640
0!
0"
#56800
0!
0"
#56960
0!
0"
#57119.9999999991
0!
0"
#57279.9999999991
0!
0"
#57440
0!
0"
#57600
0!
0"
#57760
0!
0"
#57920
0!
0"
#58079.9999999991
0!
0"
#58239.9999999991
0!
0"
#58400
0!
0"
#58560
0!
0"
#58720
0!
0"
#58879.9999999991
0!
0"
#59039.9999999991
0!
0"
#59200
0!
0"
#59360
0!
0"
#59520
0!
0"
#59679.9999999991
0!
0"
#59839.9999999991
0!
0"
#59999.9999999991
0!
0"
#60160
0!
0"
#60320
0!
0"
#60480
0!
0"
#60640
0!
0"
#60799.9999999991
0!
0"
#60959.9999999991
0!
0"
#61120
0!
0"
#61280
0!
0"
#61440
0!
0"
#61599.9999999991
0!
0"
#61759.9999999991
0!
0"
#61920
0!
0"
#62080
0!
0"
#62240
0!
0"
#62399.9999999991
0!
0"
#62559.9999999991
0!
0"
#62719.9999999991
0!
0"
#62880
0!
0"
#63040
0!
0"
#63200
0!
0"
#63359.9999999991
0!
0"
#63519.9999999991
0!
0"
#63680
0!
0"
#63840
0!
0"
#64000
0!
0"
#64160
0!
0"
#64319.9999999991
0!
0"
#64479.9999999991
0!
0"
#64640
0!
0"
#64800
0!
0"
#64960
0!
0"
#65119.9999999991
0!
0"
#65279.9999999991
0!
0"
#65440
0!
0"
#65600
0!
0"
#65760
0!
0"
#65919.9999999991
0!
0"
#66079.9999999991
0!
0"
#66239.9999999991
0!
0"
#66400
0!
0"
#66560
0!
0"
#66720
0!
0"
#66880
0!
0"
#67039.9999999991
0!
0"
#67200
0!
0"
#67360
0!
0"
#67520
0!
0"
#67680
0!
0"
#67839.9999999991
0!
0"
#67999.9999999991
0!
0"
#68160
0!
0"
#68320
0!
0"
#68480
0!
0"
#68639.9999999991
0!
0"
#68799.9999999991
0!
0"
#68960
0!
0"
#69120
0!
0"
#69280
0!
0"
#69439.9999999991
0!
0"
#69599.9999999991
0!
0"
#69759.9999999991
0!
0"
#69920
0!
0"
#70080
0!
0"
#70240
0!
0"
#70400
0!
0"
#70559.9999999991
0!
0"
#70719.9999999991
0!
0"
#70880
0!
0"
#71040
0!
0"
#71200
0!
0"
#71359.9999999991
0!
0"
#71519.9999999991
0!
0"
#71680
0!
0"
#71840
0!
0"
#72000
0!
0"
#72159.9999999991
0!
0"
#72319.9999999991
0!
0"
#72479.9999999991
0!
0"
#72640
0!
0"
#72800
0!
0"
#72960
0!
0"
#73119.9999999991
0!
0"
#73279.9999999991
0!
0"
#73440
0!
0"
#73600
0!
0"
#73760
0!
0"
#73920
0!
0"
#74079.9999999991
0!
0"
#74239.9999999991
0!
0"
#74400
0!
0"
#74560
0!
0"
#74720
0!
0"
#74879.9999999991
0!
0"
#75039.9999999991
0!
0"
#75200
0!
0"
#75360
0!
0"
#75520
0!
0"
#75679.9999999991
0!
0"
#75839.9999999991
0!
0"
#75999.9999999991
0!
0"
#76160
0!
0"
#76320
0!
0"
#76480
0!
0"
#76640
0!
0"
#76799.9999999991
0!
0"
#76960
0!
0"
#77120
0!
0"
#77280
0!
0"
#77440
0!
0"
#77599.9999999991
0!
0"
#77759.9999999991
0!
0"
#77920
0!
0"
#78080
0!
0"
#78240
0!
0"
#78399.9999999991
0!
0"
#78559.9999999991
0!
0"
#78719.9999999991
0!
0"
#78880
0!
0"
#79040
0!
0"
#79200
0!
0"
#79359.9999999991
0!
0"
#79519.9999999991
0!
0"
#79680
0!
0"
#79840
0!
0"
#80000
0!
0"
#80160
0!
0"
#80319.9999999991
0!
0"
#80479.9999999991
0!
0"
#80640
0!
0"
#80800
0!
0"
#80960
0!
0"
#81119.9999999991
0!
0"
#81279.9999999991
0!
0"
#81440
0!
0"
#81600
0!
0"
#81760
0!
0"
#81919.9999999991
0!
0"
#82079.9999999991
0!
0"
#82239.9999999991
0!
0"
#82400
0!
0"
#82560
0!
0"
#82720
0!
0"
#82879.9999999991
0!
0"
#83039.9999999991
0!
0"
#83200
0!
0"
#83360
0!
0"
#83520
0!
0"
#83680
0!
0"
#83839.9999999991
0!
0"
#83999.9999999991
0!
0"
#84160
0!
0"
#84320
0!
0"
#84480
0!
0"
#84639.9999999991
0!
0"
#84799.9999999991
0!
0"
#84960
0!
0"
#85120
0!
0"
#85280
0!
0"
#85439.9999999991
0!
0"
#85599.9999999991
0!
0"
#85759.9999999991
0!
0"
#85920
0!
0"
#86080
0!
0"
#86240
0!
0"
#86400
0!
0"
#86559.9999999991
0!
0"
#86720
0!
0"
#86880
0!
0"
#87040
0!
0"
#87200
0!
0"
#87359.9999999991
0!
0"
#87519.9999999991
0!
0"
#87680
0!
0"
#87840
0!
0"
#88000
0!
0"
#88159.9999999991
0!
0"
#88319.9999999991
0!
0"
#88479.9999999991
0!
0"
#88640
0!
0"
#88800
0!
0"
#88960
0!
0"
#89119.9999999991
0!
0"
#89279.9999999991
0!
0"
#89440
0!
0"
#89600
0!
0"
#89760
0!
0"
#89920
0!
0"
#90079.9999999991
0!
0"
#90239.9999999991
0!
0"
#90400
0!
0"
#90560
0!
0"
#90720
0!
0"
#90879.9999999991
0!
0"
#91039.9999999991
0!
0"
#91200
0!
0"
#91360
0!
0"
#91520
0!
0"
#91679.9999999991
0!
0"
#91839.9999999991
0!
0"
#91999.9999999991
0!
0"
#92160
0!
0"
#92320
0!
0"
#92480
0!
0"
#92639.9999999991
0!
0"
#92799.9999999991
0!
0"
#92960
0!
0"
#93120
0!
0"
#93280
0!
0"
#93440
0!
0"
#93599.9999999991
0!
0"
#93759.9999999991
0!
0"
#93920
0!
0"
#94080
0!
0"
#94240
0!
0"
#94399.9999999991
0!
0"
#94559.9999999991
0!
0"
#94720
0!
0"
#94880
0!
0"
#95040
0!
0"
#95199.9999999991
0!
0"
#95359.9999999991
0!
0"
#95519.9999999991
0!
0"
#95680
0!
0"
#95840
0!
0"
#96000
0!
0"
#96160
0!
0"
#96319.9999999991
0!
0"
#96479.9999999991
0!
0"
#96640
0!
0"
#96800
0!
0"
#96960
0!
0"
#97119.9999999991
0!
0"
#97279.9999999991
0!
0"
#97440
0!
0"
#97600
0!
0"
#97760
0!
0"
#97919.9999999991
0!
0"
#98079.9999999991
0!
0"
#98239.9999999991
0!
0"
#98400
0!
0"
#98560
0!
0"
#98720
0!
0"
#98879.9999999991
0!
0"
#99039.9999999991
0!
0"
#99200
0!
0"
#99360
0!
0"
#99520
0!
0"
#99680
0!
0"
#99839.9999999991
0!
0"
#99999.9999999991
0!
0"
#100160
0!
0"
#100320
0!
0"
#100480
0!
0"
#100639.999999999
0!
0"
#100799.999999999
0!
0"
#100960
0!
0"
#101120
0!
0"
#101280
0!
0"
#101439.999999999
0!
0"
#101599.999999999
0!
0"
#101759.999999999
0!
0"
#101920
0!
0"
#102080
0!
0"
#102240
0!
0"
#102400
0!
0"
#102559.999999999
0!
0"
#102720
0!
0"
#102880
0!
0"
#103040
0!
0"
#103200
0!
0"
#103359.999999999
0!
0"
#103519.999999999
0!
0"
#103680
0!
0"
#103840
0!
0"
#104000
0!
0"
#104159.999999999
0!
0"
#104319.999999999
0!
0"
#104480
0!
0"
#104640
0!
0"
#104800
0!
0"
#104960
0!
0"
#105119.999999999
0!
0"
#105279.999999999
0!
0"
#105440
0!
0"
#105600
0!
0"
#105760
0!
0"
#105920
0!
0"
#106079.999999999
0!
0"
#106239.999999999
0!
0"
#106400
0!
0"
#106560
0!
0"
#106720
0!
0"
#106879.999999999
0!
0"
#107039.999999999
0!
0"
#107200
0!
0"
#107360
0!
0"
#107520
0!
0"
#107679.999999999
0!
0"
#107839.999999999
0!
0"
#107999.999999999
0!
0"
#108160
0!
0"
#108320
0!
0"
#108480
0!
0"
#108639.999999999
0!
0"
#108799.999999999
0!
0"
#108960
0!
0"
#109120
0!
0"
#109280
0!
0"
#109440
0!
0"
#109599.999999999
0!
0"
#109759.999999999
0!
0"
#109920
0!
0"
#110080
0!
0"
#110240
0!
0"
#110399.999999999
0!
0"
#110559.999999999
0!
0"
#110720
0!
0"
#110880
0!
0"
#111040
0!
0"
#111199.999999999
0!
0"
#111359.999999999
0!
0"
#111519.999999999
0!
0"
#111680
0!
0"
#111840
0!
0"
#112000
0!
0"
#112160
0!
0"
#112319.999999999
0!
0"
#112480
0!
0"
#112640
0!
0"
#112800
0!
0"
#112960
0!
0"
#113119.999999999
0!
0"
#113279.999999999
0!
0"
#113440
0!
0"
#113600
0!
0"
#113760
0!
0"
#113919.999999999
0!
0"
#114079.999999999
0!
0"
#114239.999999999
0!
0"
#114400
0!
0"
#114560
0!
0"
#114720
0!
0"
#114879.999999999
0!
0"
#115039.999999999
0!
0"
#115200
0!
0"
#115360
0!
0"
#115520
0!
0"
#115680
0!
0"
#115839.999999999
0!
0"
#115999.999999999
0!
0"
#116160
0!
0"
#116320
0!
0"
#116480
0!
0"
#116639.999999999
0!
0"
#116799.999999999
0!
0"
#116960
0!
0"
#117120
0!
0"
#117280
0!
0"
#117439.999999999
0!
0"
#117599.999999999
0!
0"
#117759.999999999
0!
0"
#117920
0!
0"
#118080
0!
0"
#118240
0!
0"
#118399.999999999
0!
0"
#118559.999999999
0!
0"
#118720
0!
0"
#118880
0!
0"
#119040
0!
0"
#119200
0!
0"
#119359.999999999
0!
0"
#119519.999999999
0!
0"
#119680
0!
0"
#119840
0!
0"
#120000
0!
0"
#120159.999999999
0!
0"
#120319.999999999
0!
0"
#120480
0!
0"
#120640
0!
0"
#120800
0!
0"
#120959.999999999
0!
0"
#121119.999999999
0!
0"
#121279.999999999
0!
0"
#121440
0!
0"
#121600
0!
0"
#121760
0!
0"
#121920
0!
0"
#122079.999999999
0!
0"
#122239.999999999
0!
0"
#122400
0!
0"
#122560
0!
0"
#122720
0!
0"
#122879.999999999
0!
0"
#123039.999999999
0!
0"
#123200
0!
0"
#123360
0!
0"
#123520
0!
0"
#123679.999999999
0!
0"
#123839.999999999
0!
0"
#123999.999999999
0!
0"
#124160
0!
0"
#124320
0!
0"
#124480
0!
0"
#124639.999999999
0!
0"
#124799.999999999
0!
0"
#124960
0!
0"
#125120
0!
0"
#125280
0!
0"
#125440
0!
0"
#125599.999999999
0!
0"
#125759.999999999
0!
0"
#125920
0!
0"
#126080
0!
0"
#126240
0!
0"
#126399.999999999
0!
0"
#126559.999999999
0!
0"
#126720
0!
0"
#126880
0!
0"
#127040
0!
0"
#127199.999999999
0!
0"
#127359.999999999
0!
0"
#127519.999999999
0!
0"
#127680
0!
0"
#127840
0!
0"
#128000
0!
0"
#128160
0!
0"
#128319.999999999
0!
0"
#128480
0!
0"
#128640
0!
0"
#128800
0!
0"
#128960
0!
0"
#129119.999999999
0!
0"
#129279.999999999
0!
0"
#129440
0!
0"
#129600
0!
0"
#129760
0!
0"
#129919.999999999
0!
0"
#130079.999999999
0!
0"
#130240
0!
0"
#130400
0!
0"
#130560
0!
0"
#130719.999999999
0!
0"
#130879.999999999
0!
0"
#131039.999999999
0!
0"
#131200
0!
0"
#131360
0!
0"
#131520
0!
0"
#131680
0!
0"
#131839.999999999
0!
0"
#131999.999999999
0!
0"
#132160
0!
0"
#132320
0!
0"
#132480
0!
0"
#132639.999999999
0!
0"
#132799.999999999
0!
0"
#132960
0!
0"
#133120
0!
0"
#133280
0!
0"
#133439.999999999
0!
0"
#133599.999999999
0!
0"
#133759.999999999
0!
0"
#133920
0!
0"
#134080
0!
0"
#134240
0!
0"
#134399.999999999
0!
0"
#134559.999999999
0!
0"
#134720
0!
0"
#134880
0!
0"
#135040
0!
0"
#135200
0!
0"
#135359.999999999
0!
0"
#135519.999999999
0!
0"
#135680
0!
0"
#135840
0!
0"
#136000
0!
0"
#136159.999999999
0!
0"
#136319.999999999
0!
0"
#136480
0!
0"
#136640
0!
0"
#136800
0!
0"
#136959.999999999
0!
0"
#137119.999999999
0!
0"
#137279.999999999
0!
0"
#137440
0!
0"
#137600
0!
0"
#137760
0!
0"
#137920
0!
0"
#138079.999999999
0!
0"
#138240
0!
0"
#138400
0!
0"
#138560
0!
0"
#138720
0!
0"
#138879.999999999
0!
0"
#139039.999999999
0!
0"
#139200
0!
0"
#139360
0!
0"
#139520
0!
0"
#139679.999999999
0!
0"
#139839.999999999
0!
0"
#139999.999999999
0!
0"
#140160
0!
0"
#140320
0!
0"
#140480
0!
0"
#140639.999999999
0!
0"
#140799.999999999
0!
0"
#140960
0!
0"
#141120
0!
0"
#141280
0!
0"
#141440
0!
0"
#141599.999999999
0!
0"
#141759.999999999
0!
0"
#141920
0!
0"
#142080
0!
0"
#142240
0!
0"
#142399.999999999
0!
0"
#142559.999999999
0!
0"
#142720
0!
0"
#142880
0!
0"
#143040
0!
0"
#143199.999999999
0!
0"
#143359.999999999
0!
0"
#143519.999999999
0!
0"
#143680
0!
0"
#143840
0!
0"
#144000
0!
0"
#144159.999999999
0!
0"
#144319.999999999
0!
0"
#144480
0!
0"
#144640
0!
0"
#144800
0!
0"
#144960
0!
0"
#145119.999999999
0!
0"
#145279.999999999
0!
0"
#145440
0!
0"
#145600
0!
0"
#145760
0!
0"
#145919.999999999
0!
0"
#146079.999999999
0!
0"
#146240
0!
0"
#146400
0!
0"
#146560
0!
0"
#146719.999999999
0!
0"
#146879.999999999
0!
0"
#147039.999999999
0!
0"
#147200
0!
0"
#147360
0!
0"
#147520
0!
0"
#147680
0!
0"
#147839.999999999
0!
0"
#148000
0!
0"
#148160
0!
0"
#148320
0!
0"
#148480
0!
0"
#148639.999999999
0!
0"
#148799.999999999
0!
0"
#148960
0!
0"
#149120
0!
0"
#149280
0!
0"
#149439.999999999
0!
0"
#149599.999999999
0!
0"
#149759.999999999
0!
0"
#149920
0!
0"
#150080
0!
0"
#150240
0!
0"
#150399.999999999
0!
0"
#150559.999999999
0!
0"
#150720
0!
0"
#150880
0!
0"
#151040
0!
0"
#151200
0!
0"
#151359.999999999
0!
0"
#151519.999999999
0!
0"
#151680
0!
0"
#151840
0!
0"
#152000
0!
0"
#152159.999999999
0!
0"
#152319.999999999
0!
0"
#152480
0!
0"
#152640
0!
0"
#152800
0!
0"
#152959.999999999
0!
0"
#153119.999999999
0!
0"
#153279.999999999
0!
0"
#153440
0!
0"
#153600
0!
0"
#153760
0!
0"
#153919.999999999
0!
0"
#154079.999999999
0!
0"
#154240
0!
0"
#154400
0!
0"
#154560
0!
0"
#154720
0!
0"
#154879.999999999
0!
0"
#155039.999999999
0!
0"
#155200
0!
0"
#155360
0!
0"
#155520
0!
0"
#155679.999999999
0!
0"
#155839.999999999
0!
0"
#156000
0!
0"
#156160
0!
0"
#156320
0!
0"
#156479.999999999
0!
0"
#156639.999999999
0!
0"
#156799.999999999
0!
0"
#156960
0!
0"
#157120
0!
0"
#157280
0!
0"
#157440
0!
0"
#157599.999999999
0!
0"
#157759.999999999
0!
0"
#157920
0!
0"
#158080
0!
0"
#158240
0!
0"
#158399.999999999
0!
0"
#158559.999999999
0!
0"
#158720
0!
0"
#158880
0!
0"
#159040
0!
0"
#159199.999999999
0!
0"
#159359.999999999
0!
0"
#159519.999999999
0!
0"
#159680
0!
0"
#159840
0!
0"
#160000
0!
0"
#160159.999999999
0!
0"
#160319.999999999
0!
0"
#160480
0!
0"
#160640
0!
0"
#160800
0!
0"
#160960
0!
0"
#161119.999999999
0!
0"
#161279.999999999
0!
0"
#161440
0!
0"
#161600
0!
0"
#161760
0!
0"
#161919.999999999
0!
0"
#162079.999999999
0!
0"
#162240
0!
0"
#162400
0!
0"
#162560
0!
0"
#162719.999999999
0!
0"
#162879.999999999
0!
0"
#163039.999999999
0!
0"
#163200
0!
0"
#163360
0!
0"
#163520
0!
0"
#163680
0!
0"
#163839.999999999
0!
0"
#164000
0!
0"
#164160
0!
0"
#164320
0!
0"
#164480
0!
0"
#164639.999999999
0!
0"
#164799.999999999
0!
0"
#164960
0!
0"
#165120
0!
0"
#165280
0!
0"
#165439.999999999
0!
0"
#165599.999999999
0!
0"
#165760
0!
0"
#165920
0!
0"
#166080
0!
0"
#166240
0!
0"
#166399.999999999
0!
0"
#166559.999999999
0!
0"
#166720
0!
0"
#166880
0!
0"
#167040
0!
0"
#167200
0!
0"
#167359.999999999
0!
0"
#167519.999999999
0!
0"
#167680
0!
0"
#167840
0!
0"
#168000
0!
0"
#168159.999999999
0!
0"
#168319.999999999
0!
0"
#168480
0!
0"
#168640
0!
0"
#168800
0!
0"
#168959.999999999
0!
0"
#169119.999999999
0!
0"
#169279.999999999
0!
0"
#169440
0!
0"
#169600
0!
0"
#169760
0!
0"
#169919.999999999
0!
0"
#170079.999999999
0!
0"
#170240
0!
0"
#170400
0!
0"
#170560
0!
0"
#170720
0!
0"
#170879.999999999
0!
0"
#171039.999999999
0!
0"
#171200
0!
0"
#171360
0!
0"
#171520
0!
0"
#171679.999999999
0!
0"
#171839.999999999
0!
0"
#172000
0!
0"
#172160
0!
0"
#172320
0!
0"
#172479.999999999
0!
0"
#172639.999999999
0!
0"
#172799.999999999
0!
0"
#172960
0!
0"
#173120
0!
0"
#173280
0!
0"
#173440
0!
0"
#173599.999999999
0!
0"
#173760
0!
0"
#173920
0!
0"
#174080
0!
0"
#174240
0!
0"
#174399.999999999
0!
0"
#174559.999999999
0!
0"
#174720
0!
0"
#174880
0!
0"
#175040
0!
0"
#175199.999999999
0!
0"
#175359.999999999
0!
0"
#175519.999999999
0!
0"
#175680
0!
0"
#175840
0!
0"
#176000
0!
0"
#176159.999999999
0!
0"
#176319.999999999
0!
0"
#176480
0!
0"
#176640
0!
0"
#176800
0!
0"
#176960
0!
0"
#177119.999999999
0!
0"
#177279.999999999
0!
0"
#177440
0!
0"
#177600
0!
0"
#177760
0!
0"
#177919.999999999
0!
0"
#178079.999999999
0!
0"
#178240
0!
0"
#178400
0!
0"
#178560
0!
0"
#178719.999999999
0!
0"
#178879.999999999
0!
0"
#179039.999999999
0!
0"
#179200
0!
0"
#179360
0!
0"
#179520
0!
0"
#179679.999999999
0!
0"
#179839.999999999
0!
0"
#180000
0!
0"
#180160
0!
0"
#180320
0!
0"
#180480
0!
0"
#180639.999999999
0!
0"
#180799.999999999
0!
0"
#180960
0!
0"
#181120
0!
0"
#181280
0!
0"
#181439.999999999
0!
0"
#181599.999999999
0!
0"
#181760
0!
0"
#181920
0!
0"
#182080
0!
0"
#182239.999999999
0!
0"
#182399.999999999
0!
0"
#182559.999999999
0!
0"
#182720
0!
0"
#182880
0!
0"
#183040
0!
0"
#183200
0!
0"
#183359.999999999
0!
0"
#183519.999999999
0!
0"
#183680
0!
0"
#183840
0!
0"
#184000
0!
0"
#184159.999999999
0!
0"
#184319.999999999
0!
0"
#184480
0!
0"
#184640
0!
0"
#184800
0!
0"
#184959.999999999
0!
0"
#185119.999999999
0!
0"
#185279.999999999
0!
0"
#185440
0!
0"
#185600
0!
0"
#185760
0!
0"
#185919.999999999
0!
0"
#186079.999999999
0!
0"
#186240
0!
0"
#186400
0!
0"
#186560
0!
0"
#186720
0!
0"
#186879.999999999
0!
0"
#187039.999999999
0!
0"
#187200
0!
0"
#187360
0!
0"
#187520
0!
0"
#187679.999999999
0!
0"
#187839.999999999
0!
0"
#188000
0!
0"
#188160
0!
0"
#188320
0!
0"
#188479.999999999
0!
0"
#188639.999999999
0!
0"
#188799.999999999
0!
0"
#188960
0!
0"
#189120
0!
0"
#189280
0!
0"
#189440
0!
0"
#189599.999999999
0!
0"
#189760
0!
0"
#189920
0!
0"
#190080
0!
0"
#190240
0!
0"
#190399.999999999
0!
0"
#190559.999999999
0!
0"
#190720
0!
0"
#190880
0!
0"
#191040
0!
0"
#191199.999999999
0!
0"
#191359.999999999
0!
0"
#191520
0!
0"
#191680
0!
0"
#191840
0!
0"
#191999.999999999
0!
0"
#192159.999999999
0!
0"
#192319.999999999
0!
0"
#192480
0!
0"
#192640
0!
0"
#192800
0!
0"
#192960
0!
0"
#193119.999999999
0!
0"
#193279.999999999
0!
0"
#193440
0!
0"
#193600
0!
0"
#193760
0!
0"
#193919.999999999
0!
0"
#194079.999999999
0!
0"
#194240
0!
0"
#194400
0!
0"
#194560
0!
0"
#194719.999999999
0!
0"
#194879.999999999
0!
0"
#195039.999999999
0!
0"
#195200
0!
0"
#195360
0!
0"
#195520
0!
0"
#195679.999999999
0!
0"
#195839.999999999
0!
0"
#196000
0!
0"
#196160
0!
0"
#196320
0!
0"
#196480
0!
0"
#196639.999999999
0!
0"
#196799.999999999
0!
0"
#196960
0!
0"
#197120
0!
0"
#197280
0!
0"
#197439.999999999
0!
0"
#197599.999999999
0!
0"
#197760
0!
0"
#197920
0!
0"
#198080
0!
0"
#198239.999999999
0!
0"
#198399.999999999
0!
0"
#198559.999999999
0!
0"
#198720
0!
0"
#198880
0!
0"
#199040
0!
0"
#199200
0!
0"
#199359.999999999
0!
0"
#199520
0!
0"
#199680
0!
0"
#199840
0!
0"
#200000
0!
0"
#200159.999999999
0!
0"
#200319.999999999
0!
0"
#200480
0!
0"
#200640
0!
0"
#200800
0!
0"
#200959.999999999
0!
0"
#201119.999999999
0!
0"
#201279.999999999
0!
0"
#201440
0!
0"
#201600
0!
0"
